<?xml version="1.0" encoding="utf-8"?>
<!-- Generator: Adobe Illustrator 16.0.0, SVG Export Plug-In . SVG Version: 6.00 Build 0)  -->
<!DOCTYPE svg PUBLIC "-//W3C//DTD SVG 1.1//EN" "http://www.w3.org/Graphics/SVG/1.1/DTD/svg11.dtd">
<svg version="1.1" id="Layer_1" xmlns="http://www.w3.org/2000/svg" xmlns:xlink="http://www.w3.org/1999/xlink" x="0px" y="0px"
	 width="77.45px" height="173.02px" viewBox="109.697 63.5 77.45 173.02" enable-background="new 109.697 63.5 77.45 173.02"
	 xml:space="preserve">
<path fill="#728164" d="M127.495,236.495l35.745,0.024l0.061-86.511l23.846,0.017l3.179-29.803l-27.005-0.019l0.049-14.926
	c0.005-7.771,0.744-11.936,11.898-11.928l14.907,0.01l0.021-29.825l-23.854-0.016c-28.647-0.02-38.736,14.441-38.753,38.754
	l-0.013,17.897l-17.858-0.012l-0.021,29.814l17.858,0.012L127.495,236.495z"/>
</svg>
